{
  "denouncements": [
    {
      "denouncement": {
        "date": "Tue, 17 Oct 2017 12:12:11 +0000",
        "protocol": "abcd12345",
        "status": "created"
      },
      "id": 2
    },
    {
      "denouncement": "{\"date\"=>Tue, 17 Oct 2017 12:12:11 UTC +00:00, \"protocol\"=>\"abcd12345\", \"status\"=>\"created\", \"token\"=>\"4Okky+D2TkSC8TM3TDFaMw==\"}",
      "id": 3
    },
    {
      "denouncement": "{\"date\"=>Tue, 17 Oct 2017 12:12:11 UTC +00:00, \"protocol\"=>\"abcd12345\", \"status\"=>\"created\", \"token\"=>\"4Okky+D2TkSC8TM3TDFaMw==\"}",
      "id": 4
    },
    {
      "denouncement": "{\"date\"=>Tue, 17 Oct 2017 12:12:11 UTC +00:00, \"protocol\"=>\"abcd12345\", \"status\"=>\"created\", \"token\"=>\"4Okky+D2TkSC8TM3TDFaMw==\"}",
      "id": 5
    },
    {
      "denouncement": "{\"date\"=>Tue, 17 Oct 2017 12:12:11 UTC +00:00, \"protocol\"=>\"abcd12345\", \"status\"=>\"created\", \"token\"=>\"4Okky+D2TkSC8TM3TDFaMw==\"}",
      "id": 6
    },
    {
      "denouncement": {
        "date": "2017-10-17T12:12:11.000Z",
        "protocol": "abcd12345",
        "status": "created",
        "token": "4Okky+D2TkSC8TM3TDFaMw=="
      },
      "id": 7
    },
    {
      "denouncement": {
        "date": "2017-10-17T12:12:11.000Z",
        "protocol": "abcd12345",
        "status": "created",
        "token": "4Okky+D2TkSC8TM3TDFaMw=="
      },
      "id": 8
    },
    {
      "denouncement": {
        "date": "2017-10-17T12:12:11.000Z",
        "protocol": "abcd12345",
        "status": "closed",
        "token": "sc7gPdxRVdwFbyTNVcz+zg=="
      },
      "id": 9
    },
    {
      "denouncement": {
        "date": "2017-10-17T12:12:11.000Z",
        "protocol": "abcd12345",
        "status": "reopened",
        "token": "sc7gPdxRVdwFbyTNVcz+zg=="
      },
      "id": 10
    },
    {
      "denouncement": {
        "date": "2017-10-17T12:12:11.000Z",
        "protocol": "abcd12345",
        "status": "reopened",
        "token": "sc7gPdxRVdwFbyTNVcz+zg=="
      },
      "id": 11
    },
    {
      "denouncement": {
        "date": "2017-10-17T12:12:11.000Z",
        "protocol": null,
        "status": 0,
        "token": "wtHb9xHG7vqFYb+METtL2w==",
        "city": "Foo",
        "address": null,
        "description": "a violation",
        "denouncer_id": 1,
        "created_at": "2017-10-24T17:06:43.699Z",
        "updated_at": "2017-10-24T17:06:43.699Z",
        "metadata": {
          "offenders": [
            {
              "name": "rose",
              "institution": "foo",
              "relationship": "?"
            }
          ],
          "victims": [
            {
              "name": "maria",
              "contact": "maria@mail.com"
            }
          ]
        }
      },
      "id": 12
    },
    {
      "denouncement": {
        "date": "2017-10-17T12:12:11.000Z",
        "protocol": null,
        "status": 0,
        "token": "ybfk0TUjg+HR+XP1BkEcfg==",
        "city": "Foo",
        "address": null,
        "description": "a violation",
        "denouncer_id": 1,
        "created_at": "2017-10-25T12:49:40.048Z",
        "updated_at": "2017-10-25T12:49:40.048Z",
        "metadata": {
          "offenders": [
            {
              "name": "rose",
              "institution": "foo",
              "relationship": "?"
            }
          ],
          "victims": [
            {
              "name": "maria",
              "contact": "maria@mail.com"
            }
          ]
        }
      },
      "id": 13
    },
    {
      "denouncement": {
        "date": "2017-10-17T12:12:11.000Z",
        "protocol": null,
        "status": 0,
        "token": "t6faa9KK6kXFdpzY97Hn7A==",
        "city": "Foo",
        "address": null,
        "description": "a violation",
        "denouncer_id": 1,
        "created_at": "2017-10-25T12:55:23.263Z",
        "updated_at": "2017-10-25T12:55:23.263Z",
        "metadata": {
          "offenders": [
            {
              "name": "rose",
              "institution": "foo",
              "relationship": "?"
            }
          ],
          "victims": [
            {
              "name": "maria",
              "contact": "maria@mail.com"
            }
          ]
        }
      },
      "id": 14
    },
    {
      "denouncement": {
        "date": "2017-10-17T12:12:11.000Z",
        "protocol": null,
        "status": 0,
        "token": "VaP7Lddt/qWOsD9SgkTCDg==",
        "city": "Foo",
        "address": null,
        "description": "a violation",
        "denouncer_id": 1,
        "created_at": "2017-10-25T13:02:58.218Z",
        "updated_at": "2017-10-25T13:02:58.218Z",
        "metadata": {
          "offenders": [
            {
              "name": "rose",
              "institution": "foo",
              "relationship": "?"
            }
          ],
          "victims": [
            {
              "name": "maria",
              "contact": "maria@mail.com"
            }
          ]
        }
      },
      "id": 15
    },
    {
      "denouncement": {
        "date": "2017-10-17T12:12:11.000Z",
        "protocol": null,
        "status": 0,
        "token": "qIt7ajS8yAWG9CGskLA7mw==",
        "city": "Foo",
        "address": null,
        "description": "a violation",
        "denouncer_id": 1,
        "created_at": "2017-10-25T13:03:49.852Z",
        "updated_at": "2017-10-25T13:03:49.852Z",
        "metadata": {
          "offenders": [
            {
              "name": "rose",
              "institution": "foo",
              "relationship": "?"
            }
          ],
          "victims": [
            {
              "name": "maria",
              "contact": "maria@mail.com"
            }
          ]
        }
      },
      "id": 16
    },
    {
      "denouncement": {
        "date": "2017-10-17T12:12:11.000Z",
        "protocol": null,
        "status": 0,
        "token": "+84Q1huXyIpQ7Ht5uwsKrQ==",
        "city": "Foo",
        "address": null,
        "description": "a violation",
        "denouncer_id": 1,
        "created_at": "2017-10-25T13:05:34.097Z",
        "updated_at": "2017-10-25T13:05:34.097Z",
        "metadata": {
          "offenders": [
            {
              "name": "rose",
              "institution": "foo",
              "relationship": "?"
            }
          ],
          "victims": [
            {
              "name": "maria",
              "contact": "maria@mail.com"
            }
          ]
        }
      },
      "id": 17
    },
    {
      "denouncement": {
        "date": "2017-10-17T12:12:11.000Z",
        "protocol": null,
        "status": 0,
        "token": "r66BdcZXWwwQZq45BZIa/g==",
        "city": "Foo",
        "address": null,
        "description": "a violation",
        "denouncer_id": 1,
        "created_at": "2017-10-25T13:08:04.406Z",
        "updated_at": "2017-10-25T13:08:04.406Z",
        "metadata": {
          "offenders": [
            {
              "name": "rose",
              "institution": "foo",
              "relationship": "?"
            }
          ],
          "victims": [
            {
              "name": "maria",
              "contact": "maria@mail.com"
            }
          ]
        }
      },
      "id": 18
    },
    {
      "denouncement": {
        "date": "2017-10-17T12:12:11.000Z",
        "protocol": null,
        "status": 0,
        "token": "o6sppV5I6GnYFbwWvOQgQA==",
        "city": "Foo",
        "address": null,
        "description": "a violation",
        "denouncer_id": 1,
        "created_at": "2017-10-25T13:12:19.327Z",
        "updated_at": "2017-10-25T13:12:19.327Z",
        "metadata": {
          "offenders": [
            {
              "name": "rose",
              "institution": "foo",
              "relationship": "?"
            }
          ],
          "victims": [
            {
              "name": "maria",
              "contact": "maria@mail.com"
            }
          ]
        }
      },
      "id": 19
    },
    {
      "denouncement": {
        "date": "2017-10-17T12:12:11.000Z",
        "protocol": null,
        "status": 0,
        "token": "s+LkRiNzpHO/PVzKxl6rvA==",
        "city": "Foo",
        "address": null,
        "description": "a violation",
        "denouncer_id": 1,
        "created_at": "2017-10-25T13:17:27.556Z",
        "updated_at": "2017-10-25T13:17:27.556Z",
        "metadata": {
          "offenders": [
            {
              "name": "rose",
              "institution": "foo",
              "relationship": "?"
            }
          ],
          "victims": [
            {
              "name": "maria",
              "contact": "maria@mail.com"
            }
          ]
        }
      },
      "id": 20
    },
    {
      "denouncement": {
        "date": "2017-10-17T12:12:11.000Z",
        "protocol": null,
        "status": 0,
        "token": "Eoapu22KBrN5xvbOxeFn3g==",
        "city": "Foo",
        "address": null,
        "description": "a violation",
        "denouncer_id": 1,
        "created_at": "2017-10-25T13:21:48.584Z",
        "updated_at": "2017-10-25T13:21:48.584Z",
        "metadata": {
          "offenders": [
            {
              "name": "rose",
              "institution": "foo",
              "relationship": "?"
            }
          ],
          "victims": [
            {
              "name": "maria",
              "contact": "maria@mail.com"
            }
          ]
        }
      },
      "id": 21
    },
    {
      "denouncement": {
        "date": "2017-10-17T12:12:11.000Z",
        "protocol": null,
        "status": 0,
        "token": "o6sppV5I6GnYFbwWvOQgQA==",
        "city": "Foo",
        "address": null,
        "description": "a violation",
        "denouncer_id": 1,
        "created_at": "2017-10-25T13:12:19.327Z",
        "updated_at": "2017-10-25T13:12:19.327Z",
        "metadata": {
          "victims": [
            {
              "name": "maria",
              "contact": "maria@mail.com"
            }
          ],
          "offenders": [
            {
              "name": "rose",
              "institution": "foo",
              "relationship": "?"
            }
          ]
        }
      },
      "id": 22
    },
    {
      "denouncement": {
        "date": "2017-10-17T12:12:11.000Z",
        "protocol": null,
        "status": 0,
        "token": "o6sppV5I6GnYFbwWvOQgQA==",
        "city": "Foo",
        "address": null,
        "description": "a violation",
        "denouncer_id": 1,
        "created_at": "2017-10-25T13:12:19.327Z",
        "updated_at": "2017-10-25T13:12:19.327Z",
        "metadata": {
          "victims": [
            {
              "name": "maria",
              "contact": "maria@mail.com"
            }
          ],
          "offenders": [
            {
              "name": "rose",
              "institution": "foo",
              "relationship": "?"
            }
          ]
        }
      },
      "id": 23
    },
    {
      "denouncement": {
        "date": "2017-10-17T12:12:11.000Z",
        "protocol": null,
        "status": 0,
        "token": "o6sppV5I6GnYFbwWvOQgQA==",
        "city": "Foo",
        "address": null,
        "description": "a violation",
        "denouncer_id": 1,
        "created_at": "2017-10-25T13:12:19.327Z",
        "updated_at": "2017-10-25T13:12:19.327Z",
        "metadata": {
          "victims": [
            {
              "name": "maria",
              "contact": "maria@mail.com"
            }
          ],
          "offenders": [
            {
              "name": "rose",
              "institution": "foo",
              "relationship": "?"
            }
          ]
        }
      },
      "id": 24
    },
    {
      "denouncement": {
        "date": "2017-10-17T12:12:11.000Z",
        "protocol": null,
        "status": 0,
        "token": "o6sppV5I6GnYFbwWvOQgQA==",
        "city": "Foo",
        "address": null,
        "description": "a violation",
        "denouncer_id": 1,
        "created_at": "2017-10-25T13:12:19.327Z",
        "updated_at": "2017-10-25T13:12:19.327Z",
        "metadata": {
          "victims": [
            {
              "name": "maria",
              "contact": "maria@mail.com"
            }
          ],
          "offenders": [
            {
              "name": "rose",
              "institution": "foo",
              "relationship": "?"
            }
          ]
        }
      },
      "id": 25
    },
    {
      "denouncement": {
        "date": "2017-10-17T12:12:11.000Z",
        "protocol": null,
        "status": 0,
        "token": "o6sppV5I6GnYFbwWvOQgQA==",
        "city": "Foo",
        "address": null,
        "description": "a violation",
        "denouncer_id": 1,
        "created_at": "2017-10-25T13:12:19.327Z",
        "updated_at": "2017-10-25T13:12:19.327Z",
        "metadata": {
          "victims": [
            {
              "name": "maria",
              "contact": "maria@mail.com"
            }
          ],
          "offenders": [
            {
              "name": "rose",
              "institution": "foo",
              "relationship": "?"
            }
          ]
        }
      },
      "id": 26
    },
    {
      "denouncement": {
        "date": "2017-10-17T12:12:11.000Z",
        "protocol": null,
        "status": 0,
        "token": "o6sppV5I6GnYFbwWvOQgQA==",
        "city": "Foo",
        "address": null,
        "description": "a violation",
        "denouncer_id": 1,
        "created_at": "2017-10-25T13:12:19.327Z",
        "updated_at": "2017-10-25T13:12:19.327Z",
        "metadata": {
          "victims": [
            {
              "name": "maria",
              "contact": "maria@mail.com"
            }
          ],
          "offenders": [
            {
              "name": "rose",
              "institution": "foo",
              "relationship": "?"
            }
          ]
        }
      },
      "id": 27
    },
    {
      "denouncement": {
        "date": "2017-10-17T12:12:11.000Z",
        "protocol": null,
        "status": 0,
        "token": "o6sppV5I6GnYFbwWvOQgQA==",
        "city": "Foo",
        "address": null,
        "description": "a violation",
        "denouncer_id": 1,
        "created_at": "2017-10-25T13:12:19.327Z",
        "updated_at": "2017-10-25T13:12:19.327Z",
        "metadata": {
          "victims": [
            {
              "name": "maria",
              "contact": "maria@mail.com"
            }
          ],
          "offenders": [
            {
              "name": "rose",
              "institution": "foo",
              "relationship": "?"
            }
          ]
        }
      },
      "id": 28
    },
    {
      "denouncement": {
        "date": "2017-10-17T12:12:11.000Z",
        "protocol": null,
        "status": 0,
        "token": "o6sppV5I6GnYFbwWvOQgQA==",
        "city": "Foo",
        "address": null,
        "description": "a violation",
        "denouncer_id": 1,
        "created_at": "2017-10-25T13:12:19.327Z",
        "updated_at": "2017-10-25T13:12:19.327Z",
        "metadata": {
          "victims": [
            {
              "name": "maria",
              "contact": "maria@mail.com"
            }
          ],
          "offenders": [
            {
              "name": "rose",
              "institution": "foo",
              "relationship": "?"
            }
          ]
        }
      },
      "id": 29
    },
    {
      "denouncement": {
        "date": "2017-10-17T12:12:11.000Z",
        "protocol": null,
        "status": 0,
        "token": "o6sppV5I6GnYFbwWvOQgQA==",
        "city": "Foo",
        "address": null,
        "description": "a violation",
        "denouncer_id": 1,
        "created_at": "2017-10-25T13:12:19.327Z",
        "updated_at": "2017-10-25T13:12:19.327Z",
        "metadata": {
          "victims": [
            {
              "name": "maria",
              "contact": "maria@mail.com"
            }
          ],
          "offenders": [
            {
              "name": "rose",
              "institution": "foo",
              "relationship": "?"
            }
          ]
        }
      },
      "id": 30
    },
    {
      "denouncement": {
        "date": "2017-10-17T12:12:11.000Z",
        "protocol": null,
        "status": 0,
        "token": "o6sppV5I6GnYFbwWvOQgQA==",
        "city": "Foo",
        "address": null,
        "description": "a violation",
        "denouncer_id": 1,
        "created_at": "2017-10-25T13:12:19.327Z",
        "updated_at": "2017-10-25T13:12:19.327Z",
        "metadata": {
          "victims": [
            {
              "name": "maria",
              "contact": "maria@mail.com"
            }
          ],
          "offenders": [
            {
              "name": "rose",
              "institution": "foo",
              "relationship": "?"
            }
          ]
        }
      },
      "id": 31
    },
    {
      "denouncement": {
        "date": "2017-10-17T12:12:11.000Z",
        "protocol": null,
        "status": 0,
        "token": "o6sppV5I6GnYFbwWvOQgQA==",
        "city": "Foo",
        "address": null,
        "description": "a violation",
        "denouncer_id": 1,
        "created_at": "2017-10-25T13:12:19.327Z",
        "updated_at": "2017-10-25T13:12:19.327Z",
        "metadata": {
          "victims": [
            {
              "name": "maria",
              "contact": "maria@mail.com"
            }
          ],
          "offenders": [
            {
              "name": "rose",
              "institution": "foo",
              "relationship": "?"
            }
          ]
        }
      },
      "id": 32
    },
    {
      "denouncement": {
        "date": "2017-10-17T12:12:11.000Z",
        "protocol": null,
        "status": 0,
        "token": "o6sppV5I6GnYFbwWvOQgQA==",
        "city": "Foo",
        "address": null,
        "description": "a violation",
        "denouncer_id": 1,
        "created_at": "2017-10-25T13:12:19.327Z",
        "updated_at": "2017-10-25T13:12:19.327Z",
        "metadata": {
          "victims": [
            {
              "name": "maria",
              "contact": "maria@mail.com"
            }
          ],
          "offenders": [
            {
              "name": "rose",
              "institution": "foo",
              "relationship": "?"
            }
          ]
        }
      },
      "id": 33
    },
    {
      "denouncement": {
        "date": "2017-10-17T12:12:11.000Z",
        "protocol": null,
        "status": 0,
        "token": "o6sppV5I6GnYFbwWvOQgQA==",
        "city": "Foo",
        "address": null,
        "description": "a violation",
        "denouncer_id": 1,
        "created_at": "2017-10-25T13:12:19.327Z",
        "updated_at": "2017-10-25T13:12:19.327Z",
        "metadata": {
          "victims": [
            {
              "name": "maria",
              "contact": "maria@mail.com"
            }
          ],
          "offenders": [
            {
              "name": "rose",
              "institution": "foo",
              "relationship": "?"
            }
          ]
        }
      },
      "id": 34
    },
    {
      "denouncement": {
        "date": "2017-10-17T12:12:11.000Z",
        "protocol": null,
        "status": 0,
        "token": "o6sppV5I6GnYFbwWvOQgQA==",
        "city": "Foo",
        "address": null,
        "description": "a violation",
        "denouncer_id": 1,
        "created_at": "2017-10-25T13:12:19.327Z",
        "updated_at": "2017-10-25T13:12:19.327Z",
        "metadata": {
          "victims": [
            {
              "name": "maria",
              "contact": "maria@mail.com"
            }
          ],
          "offenders": [
            {
              "name": "rose",
              "institution": "foo",
              "relationship": "?"
            }
          ]
        }
      },
      "id": 35
    },
    {
      "denouncement": {
        "date": "2017-10-17T12:12:11.000Z",
        "protocol": null,
        "status": 0,
        "token": "o6sppV5I6GnYFbwWvOQgQA==",
        "city": "Foo",
        "address": null,
        "description": "a violation",
        "denouncer_id": 1,
        "created_at": "2017-10-25T13:12:19.327Z",
        "updated_at": "2017-10-25T13:12:19.327Z",
        "metadata": {
          "victims": [
            {
              "name": "maria",
              "contact": "maria@mail.com"
            }
          ],
          "offenders": [
            {
              "name": "rose",
              "institution": "foo",
              "relationship": "?"
            }
          ]
        }
      },
      "id": 36
    },
    {
      "denouncement": {
        "date": "2017-10-17T12:12:11.000Z",
        "protocol": null,
        "status": 0,
        "token": "o6sppV5I6GnYFbwWvOQgQA==",
        "city": "Foo",
        "address": null,
        "description": "a violation",
        "denouncer_id": 1,
        "created_at": "2017-10-25T13:12:19.327Z",
        "updated_at": "2017-10-25T13:12:19.327Z",
        "metadata": {
          "victims": [
            {
              "name": "maria",
              "contact": "maria@mail.com"
            }
          ],
          "offenders": [
            {
              "name": "rose",
              "institution": "foo",
              "relationship": "?"
            }
          ]
        }
      },
      "id": 37
    },
    {
      "denouncement": {
        "date": "2017-10-17T12:12:11.000Z",
        "protocol": null,
        "status": 0,
        "token": "o6sppV5I6GnYFbwWvOQgQA==",
        "city": "Foo",
        "address": null,
        "description": "a violation",
        "denouncer_id": 1,
        "created_at": "2017-10-25T13:12:19.327Z",
        "updated_at": "2017-10-25T13:12:19.327Z",
        "metadata": {
          "victims": [
            {
              "name": "maria",
              "contact": "maria@mail.com"
            }
          ],
          "offenders": [
            {
              "name": "rose",
              "institution": "foo",
              "relationship": "?"
            }
          ]
        }
      },
      "id": 38
    },
    {
      "denouncement": {
        "date": "2017-10-17T12:12:11.000Z",
        "protocol": null,
        "status": 0,
        "token": "o6sppV5I6GnYFbwWvOQgQA==",
        "city": "Foo",
        "address": null,
        "description": "a violation",
        "denouncer_id": 1,
        "created_at": "2017-10-25T13:12:19.327Z",
        "updated_at": "2017-10-25T13:12:19.327Z",
        "metadata": {
          "victims": [
            {
              "name": "maria",
              "contact": "maria@mail.com"
            }
          ],
          "offenders": [
            {
              "name": "rose",
              "institution": "foo",
              "relationship": "?"
            }
          ]
        }
      },
      "id": 39
    },
    {
      "denouncement": {
        "date": "2017-10-17T12:12:11.000Z",
        "protocol": null,
        "status": 0,
        "token": "o6sppV5I6GnYFbwWvOQgQA==",
        "city": "Foo",
        "address": null,
        "description": "a violation",
        "denouncer_id": 1,
        "created_at": "2017-10-25T13:12:19.327Z",
        "updated_at": "2017-10-25T13:12:19.327Z",
        "metadata": {
          "victims": [
            {
              "name": "maria",
              "contact": "maria@mail.com"
            }
          ],
          "offenders": [
            {
              "name": "rose",
              "institution": "foo",
              "relationship": "?"
            }
          ]
        }
      },
      "id": 40
    },
    {
      "denouncement": {
        "date": "2017-10-17T12:12:11.000Z",
        "protocol": null,
        "status": 0,
        "token": "o6sppV5I6GnYFbwWvOQgQA==",
        "city": "Foo",
        "address": null,
        "description": "a violation",
        "denouncer_id": 1,
        "created_at": "2017-10-25T13:12:19.327Z",
        "updated_at": "2017-10-25T13:12:19.327Z",
        "metadata": {
          "victims": [
            {
              "name": "maria",
              "contact": "maria@mail.com"
            }
          ],
          "offenders": [
            {
              "name": "rose",
              "institution": "foo",
              "relationship": "?"
            }
          ]
        }
      },
      "id": 41
    },
    {
      "denouncement": {
        "date": "2017-10-17T12:12:11.000Z",
        "protocol": null,
        "status": 0,
        "token": "o6sppV5I6GnYFbwWvOQgQA==",
        "city": "Foo",
        "address": null,
        "description": "a violation",
        "denouncer_id": 1,
        "created_at": "2017-10-25T13:12:19.327Z",
        "updated_at": "2017-10-25T13:12:19.327Z",
        "metadata": {
          "victims": [
            {
              "name": "maria",
              "contact": "maria@mail.com"
            }
          ],
          "offenders": [
            {
              "name": "rose",
              "institution": "foo",
              "relationship": "?"
            }
          ]
        }
      },
      "id": 42
    },
    {
      "denouncement": {
        "date": "2017-10-17T12:12:11.000Z",
        "protocol": null,
        "status": 0,
        "token": "o6sppV5I6GnYFbwWvOQgQA==",
        "city": "Foo",
        "address": null,
        "description": "a violation",
        "denouncer_id": 1,
        "created_at": "2017-10-25T13:12:19.327Z",
        "updated_at": "2017-10-25T13:12:19.327Z",
        "metadata": {
          "victims": [
            {
              "name": "maria",
              "contact": "maria@mail.com"
            }
          ],
          "offenders": [
            {
              "name": "rose",
              "institution": "foo",
              "relationship": "?"
            }
          ]
        }
      },
      "id": 43
    },
    {
      "denouncement": {
        "date": "2017-10-17T12:12:11.000Z",
        "protocol": null,
        "status": 0,
        "token": "o6sppV5I6GnYFbwWvOQgQA==",
        "city": "Foo",
        "address": null,
        "description": "a violation",
        "denouncer_id": 1,
        "created_at": "2017-10-25T13:12:19.327Z",
        "updated_at": "2017-10-25T13:12:19.327Z",
        "metadata": {
          "victims": [
            {
              "name": "maria",
              "contact": "maria@mail.com"
            }
          ],
          "offenders": [
            {
              "name": "rose",
              "institution": "foo",
              "relationship": "?"
            }
          ]
        }
      },
      "id": 44
    },
    {
      "denouncement": {
        "date": "2017-10-17T12:12:11.000Z",
        "protocol": null,
        "status": 0,
        "token": "o6sppV5I6GnYFbwWvOQgQA==",
        "city": "Foo",
        "address": null,
        "description": "a violation",
        "denouncer_id": 1,
        "created_at": "2017-10-25T13:12:19.327Z",
        "updated_at": "2017-10-25T13:12:19.327Z",
        "metadata": {
          "victims": [
            {
              "name": "maria",
              "contact": "maria@mail.com"
            }
          ],
          "offenders": [
            {
              "name": "rose",
              "institution": "foo",
              "relationship": "?"
            }
          ]
        }
      },
      "id": 45
    },
    {
      "denouncement": {
        "date": "2017-10-17T12:12:11.000Z",
        "protocol": null,
        "status": 0,
        "token": "o6sppV5I6GnYFbwWvOQgQA==",
        "city": "Foo",
        "address": null,
        "description": "a violation",
        "denouncer_id": 1,
        "created_at": "2017-10-25T13:12:19.327Z",
        "updated_at": "2017-10-25T13:12:19.327Z",
        "metadata": {
          "victims": [
            {
              "name": "maria",
              "contact": "maria@mail.com"
            }
          ],
          "offenders": [
            {
              "name": "rose",
              "institution": "foo",
              "relationship": "?"
            }
          ]
        }
      },
      "id": 46
    },
    {
      "denouncement": {
        "date": "2017-10-17T12:12:11.000Z",
        "protocol": null,
        "status": 0,
        "token": "fbac5IFHF5L+xa+i+VoUAw==",
        "city": "Brasilia",
        "address": null,
        "description": "one more violation",
        "denouncer_id": 18,
        "created_at": "2017-10-25T13:49:11.673Z",
        "updated_at": "2017-10-25T13:49:11.673Z",
        "metadata": {
          "offenders": [
            {
              "name": "rose",
              "institution": "foo",
              "relationship": "?"
            }
          ],
          "victims": [
            {
              "name": "maria",
              "contact": "maria@mail.com"
            }
          ]
        }
      },
      "id": 47
    },
    {
      "denouncement": {
        "date": "2017-10-17T12:12:11.000Z",
        "protocol": null,
        "status": 0,
        "token": "o6sppV5I6GnYFbwWvOQgQA==",
        "city": "Foo",
        "address": null,
        "description": "a violation",
        "denouncer_id": 1,
        "created_at": "2017-10-25T13:12:19.327Z",
        "updated_at": "2017-10-25T13:12:19.327Z",
        "metadata": {
          "victims": [
            {
              "name": "maria",
              "contact": "maria@mail.com"
            }
          ],
          "offenders": [
            {
              "name": "rose",
              "institution": "foo",
              "relationship": "?"
            }
          ]
        }
      },
      "id": 48
    },
    {
      "denouncement": {
        "date": "2017-10-17T12:12:11.000Z",
        "protocol": null,
        "status": 0,
        "token": "o6sppV5I6GnYFbwWvOQgQA==",
        "city": "Foo",
        "address": null,
        "description": "a violation",
        "denouncer_id": 1,
        "created_at": "2017-10-25T13:12:19.327Z",
        "updated_at": "2017-10-25T13:12:19.327Z",
        "metadata": {
          "victims": [
            {
              "name": "maria",
              "contact": "maria@mail.com"
            }
          ],
          "offenders": [
            {
              "name": "rose",
              "institution": "foo",
              "relationship": "?"
            }
          ]
        }
      },
      "id": 49
    },
    {
      "denouncement": {
        "date": "2017-10-17T12:12:11.000Z",
        "protocol": null,
        "status": 0,
        "token": "o6sppV5I6GnYFbwWvOQgQA==",
        "city": "Foo",
        "address": null,
        "description": "a violation",
        "denouncer_id": 1,
        "created_at": "2017-10-25T13:12:19.327Z",
        "updated_at": "2017-10-25T13:12:19.327Z",
        "metadata": {
          "victims": [
            {
              "name": "maria",
              "contact": "maria@mail.com"
            }
          ],
          "offenders": [
            {
              "name": "rose",
              "institution": "foo",
              "relationship": "?"
            }
          ]
        }
      },
      "id": 50
    },
    {
      "denouncement": {
        "date": "2017-10-17T12:12:11.000Z",
        "protocol": null,
        "status": 0,
        "token": "o6sppV5I6GnYFbwWvOQgQA==",
        "city": "Foo",
        "address": null,
        "description": "a violation",
        "denouncer_id": 1,
        "created_at": "2017-10-25T13:12:19.327Z",
        "updated_at": "2017-10-25T13:12:19.327Z",
        "metadata": {
          "victims": [
            {
              "name": "maria",
              "contact": "maria@mail.com"
            }
          ],
          "offenders": [
            {
              "name": "rose",
              "institution": "foo",
              "relationship": "?"
            }
          ]
        }
      },
      "id": 51
    },
    {
      "denouncement": {
        "date": "2017-10-17T12:12:11.000Z",
        "protocol": null,
        "status": 0,
        "token": "ANbA1NwbsmDkJXQgxfpfTQ==",
        "city": "Brasilia",
        "address": null,
        "description": "one more violation",
        "denouncer_id": 18,
        "created_at": "2017-10-25T13:54:25.752Z",
        "updated_at": "2017-10-25T13:54:25.752Z",
        "metadata": {
          "offenders": [
            {
              "name": "rose",
              "institution": "foo",
              "relationship": "?"
            }
          ],
          "victims": [
            {
              "name": "maria",
              "contact": "maria@mail.com"
            }
          ]
        }
      },
      "id": 52
    },
    {
      "denouncement": {
        "date": "2017-10-17T12:12:11.000Z",
        "protocol": null,
        "status": 0,
        "token": "o6sppV5I6GnYFbwWvOQgQA==",
        "city": "Foo",
        "address": null,
        "description": "a violation",
        "denouncer_id": 1,
        "created_at": "2017-10-25T13:12:19.327Z",
        "updated_at": "2017-10-25T13:12:19.327Z",
        "metadata": {
          "victims": [
            {
              "name": "maria",
              "contact": "maria@mail.com"
            }
          ],
          "offenders": [
            {
              "name": "rose",
              "institution": "foo",
              "relationship": "?"
            }
          ]
        }
      },
      "id": 53
    },
    {
      "denouncement": {
        "date": "2017-10-17T12:12:11.000Z",
        "protocol": null,
        "status": 0,
        "token": "o6sppV5I6GnYFbwWvOQgQA==",
        "city": "Foo",
        "address": null,
        "description": "a violation",
        "denouncer_id": 1,
        "created_at": "2017-10-25T13:12:19.327Z",
        "updated_at": "2017-10-25T13:12:19.327Z",
        "metadata": {
          "victims": [
            {
              "name": "maria",
              "contact": "maria@mail.com"
            }
          ],
          "offenders": [
            {
              "name": "rose",
              "institution": "foo",
              "relationship": "?"
            }
          ]
        }
      },
      "id": 54
    },
    {
      "denouncement": {
        "date": "2017-10-17T12:12:11.000Z",
        "protocol": null,
        "status": 0,
        "token": "o6sppV5I6GnYFbwWvOQgQA==",
        "city": "Foo",
        "address": null,
        "description": "a violation",
        "denouncer_id": 1,
        "created_at": "2017-10-25T13:12:19.327Z",
        "updated_at": "2017-10-25T13:12:19.327Z",
        "metadata": {
          "victims": [
            {
              "name": "maria",
              "contact": "maria@mail.com"
            }
          ],
          "offenders": [
            {
              "name": "rose",
              "institution": "foo",
              "relationship": "?"
            }
          ]
        }
      },
      "id": 55
    },
    {
      "denouncement": {
        "date": "2017-10-17T12:12:11.000Z",
        "protocol": null,
        "status": 0,
        "token": "o6sppV5I6GnYFbwWvOQgQA==",
        "city": "Foo",
        "address": null,
        "description": "a violation",
        "denouncer_id": 1,
        "created_at": "2017-10-25T13:12:19.327Z",
        "updated_at": "2017-10-25T13:12:19.327Z",
        "metadata": {
          "victims": [
            {
              "name": "maria",
              "contact": "maria@mail.com"
            }
          ],
          "offenders": [
            {
              "name": "rose",
              "institution": "foo",
              "relationship": "?"
            }
          ]
        }
      },
      "id": 56
    },
    {
      "denouncement": {
        "date": "2017-10-17T12:12:11.000Z",
        "protocol": null,
        "status": 0,
        "token": "o6sppV5I6GnYFbwWvOQgQA==",
        "city": "Foo",
        "address": null,
        "description": "a violation",
        "denouncer_id": 1,
        "created_at": "2017-10-25T13:12:19.327Z",
        "updated_at": "2017-10-25T13:12:19.327Z",
        "metadata": {
          "victims": [
            {
              "name": "maria",
              "contact": "maria@mail.com"
            }
          ],
          "offenders": [
            {
              "name": "rose",
              "institution": "foo",
              "relationship": "?"
            }
          ]
        }
      },
      "id": 57
    },
    {
      "denouncement": {
        "date": "2017-10-17T12:12:11.000Z",
        "protocol": null,
        "status": 0,
        "token": "uRenOcEN4uTUfbLERbTaPw==",
        "city": "Brasilia",
        "address": null,
        "description": "one more violation",
        "denouncer_id": 18,
        "created_at": "2017-10-25T13:56:20.378Z",
        "updated_at": "2017-10-25T13:56:20.378Z",
        "metadata": {
          "offenders": [
            {
              "name": "rose",
              "institution": "foo",
              "relationship": "?"
            }
          ],
          "victims": [
            {
              "name": "maria",
              "contact": "maria@mail.com"
            }
          ]
        }
      },
      "id": 58
    },
    {
      "denouncement": {
        "date": "2017-10-17T12:12:11.000Z",
        "protocol": null,
        "status": 0,
        "token": "r14Zhjioh4hzJ2WhotmIFg==",
        "city": "Brasilia",
        "address": null,
        "description": "one more violation",
        "denouncer_id": 18,
        "created_at": "2017-10-25T14:02:21.507Z",
        "updated_at": "2017-10-25T14:02:21.507Z",
        "metadata": {
          "offenders": [
            {
              "name": "rose",
              "institution": "foo",
              "relationship": "?"
            }
          ],
          "victims": [
            {
              "name": "maria",
              "contact": "maria@mail.com"
            }
          ]
        }
      },
      "id": 59
    }
  ]
}